<?xml version="1.0" encoding="UTF-8"?>
<svg width="14px" height="14px" viewBox="0 0 14 14" version="1.1" xmlns="http://www.w3.org/2000/svg" xmlns:xlink="http://www.w3.org/1999/xlink">
    <!-- Generator: Sketch 47.1 (45422) - http://www.bohemiancoding.com/sketch -->
    <title>Combined Shape</title>
    <desc>Created with Sketch.</desc>
    <defs></defs>
    <g id="Page-1" stroke="none" stroke-width="1" fill="none" fill-rule="evenodd">
        <g id="1.0-homepage" transform="translate(-70.000000, -65.000000)" fill="#FFFFFF">
            <g id="hero">
                <g id="nav" transform="translate(70.000000, 49.000000)">
                    <g id="menu">
                        <g id="Group-9" transform="translate(0.000000, 16.000000)">
                            <path d="M0,0 L2,0 L2,2 L0,2 L0,0 Z M6,0 L8,0 L8,2 L6,2 L6,0 Z M12,0 L14,0 L14,2 L12,2 L12,0 Z M0,6 L2,6 L2,8 L0,8 L0,6 Z M6,6 L8,6 L8,8 L6,8 L6,6 Z M12,6 L14,6 L14,8 L12,8 L12,6 Z M0,12 L2,12 L2,14 L0,14 L0,12 Z M6,12 L8,12 L8,14 L6,14 L6,12 Z M12,12 L14,12 L14,14 L12,14 L12,12 Z" id="Combined-Shape"></path>
                        </g>
                    </g>
                </g>
            </g>
        </g>
    </g>
</svg>